{
  "availability": "PRIVATE",
  "contextPath": "smartled",
  "key": "smartled",
  "name": "smartled",
  "resourcesUrl": "/",
  "type": "HOSTED",
  "copy": [
    "css", "img", "js", "node_modules/echarts", "node_modules/echarts-ng", "sections", "views"
  ]
}